{
	"FILENAME": "secrets.json",
	"DATABASES_NAME": "examenesmsgrupos",
	"DATABASES_USER": "ivanmvr",
	"DATABASES_PASSWORD": "ivan1234",
	"DATABASES_HOST": "172.18.1.229",
	"DATABASES_PORT": "5432"
}
